<?xml version="1.0" encoding="utf-8"?>
<!-- Generator: Adobe Illustrator 24.0.0, SVG Export Plug-In . SVG Version: 6.00 Build 0)  -->
<svg version="1.1" id="Layer_1" xmlns="http://www.w3.org/2000/svg" xmlns:xlink="http://www.w3.org/1999/xlink" x="0px" y="0px"
	 viewBox="0 0 151.3 119.6" enable-background="new 0 0 151.3 119.6" xml:space="preserve">
<g>
	<path fill="#FFFFFF" d="M32.6,1.2v33.4h-10c0,0-0.1,0-0.1,0c-12.1,0.5-21,9.6-21,22.1c0,6.3,5.7,12.1,12.1,12.1
		c6.8,0,12.3-5.5,12.3-12.1c0-8.8-9-14.3-16.8-11.3c3.2-4.2,8.5-6.6,14-6.7h0.8c0,0,0.1,0,0.1,0c0,0,0,0,0,0h8.6l0,79.7v0h117.2V1.2
		H32.6z M37.3,5.9h107.8v100.5l-38.6-67.6h8.7c0.6,0,1.1-0.5,1.1-1.1v-1.8c0-0.6-0.5-1.1-1.1-1.1H79.6c-0.6,0-1.1,0.5-1.1,1.1v1.8
		c0,0.6,0.5,1.1,1.1,1.1h10v70l-42-73.6c-0.2-0.4-0.6-0.6-1-0.6h-9.3V5.9z M93.5,113.7V83.6H116l17.2,30.1H93.5z M37.3,113.7V45.4
		l39,68.3H37.3z M93.5,79.6V44.2l20.2,35.4H93.5z"/>
</g>
</svg>
